{"docs": [{"id": "657d5f4f6b7ad3ad0bc2187c", "departure": "Bundaran HI", "destination": "Setiabudi Astra", "nilai_heuristic": 37, "createdAt": "2023-12-16T08:26:55.904Z", "updatedAt": "2023-12-16T08:26:55.904Z"}, {"id": "657d5f3f6b7ad3ad0bc21872", "departure": "Bundaran HI", "destination": "Dukuh Atas BNI", "nilai_heuristic": 70, "createdAt": "2023-12-16T08:26:39.702Z", "updatedAt": "2023-12-16T08:26:39.702Z"}, {"id": "657d5de1c342d307719baac6", "departure": "Dukuh Atas BNI", "destination": "Bundaran HI", "nilai_heuristic": 70, "createdAt": "2023-12-16T08:20:49.996Z", "updatedAt": "2023-12-16T08:26:18.681Z"}, {"id": "657d5dd1c342d307719baabc", "departure": "Dukuh Atas BNI", "destination": "Setiabudi Astra", "nilai_heuristic": 44, "createdAt": "2023-12-16T08:20:33.070Z", "updatedAt": "2023-12-16T08:20:33.070Z"}, {"id": "657d5dc3c342d307719baab2", "departure": "Setiabudi Astra", "destination": "Dukuh Atas BNI", "nilai_heuristic": 44, "createdAt": "2023-12-16T08:20:19.382Z", "updatedAt": "2023-12-16T08:20:19.382Z"}, {"id": "657d5db9c342d307719baaa8", "departure": "Setiabudi Astra", "destination": "Bundaran HI", "nilai_heuristic": 37, "createdAt": "2023-12-16T08:20:09.562Z", "updatedAt": "2023-12-16T08:20:09.562Z"}, {"id": "657d5da9c342d307719baa9e", "departure": "Bendungan Hilir", "destination": "Setiabudi Astra", "nilai_heuristic": 33, "createdAt": "2023-12-16T08:19:53.811Z", "updatedAt": "2023-12-16T08:19:53.811Z"}, {"id": "657d5d9dc342d307719baa94", "departure": "Bendungan Hilir", "destination": "Istora Mandiri", "nilai_heuristic": 40, "createdAt": "2023-12-16T08:19:41.926Z", "updatedAt": "2023-12-16T08:19:41.926Z"}, {"id": "657d5d8ec342d307719baa8a", "departure": "Istora Mandiri", "destination": "Bendungan Hilir", "nilai_heuristic": 40, "createdAt": "2023-12-16T08:19:26.489Z", "updatedAt": "2023-12-16T08:19:26.489Z"}, {"id": "657d5d82c342d307719baa80", "departure": "Istora Mandiri", "destination": "Senayan", "nilai_heuristic": 17, "createdAt": "2023-12-16T08:19:14.621Z", "updatedAt": "2023-12-16T08:19:14.621Z"}], "totalDocs": 29, "limit": 10, "totalPages": 3, "page": 1, "pagingCounter": 1, "hasPrevPage": false, "hasNextPage": true, "prevPage": null, "nextPage": 2}